// Jest Snapshot v1, https://goo.gl/fbAQLP

exports[`copy-mediaGroup.ts: Copies and pastes mediaGroup file card on fullpage 1`] = `
Object {
  "content": Array [
    Object {
      "content": Array [
        Object {
          "attrs": Object {
            "__displayType": null,
            "__fileMimeType": null,
            "__fileName": "example.png",
            "__fileSize": null,
            "collection": "MediaServicesSample",
            "height": null,
            "id": "1234-5678-abcd-efgh",
            "occurrenceKey": null,
            "type": "file",
            "url": null,
            "width": null,
          },
          "type": "media",
        },
      ],
      "type": "mediaGroup",
    },
    Object {
      "content": Array [
        Object {
          "text": "pasting",
          "type": "text",
        },
      ],
      "type": "paragraph",
    },
    Object {
      "content": Array [
        Object {
          "attrs": Object {
            "__displayType": null,
            "__fileMimeType": null,
            "__fileName": "example.png",
            "__fileSize": null,
            "collection": "MediaServicesSample",
            "height": null,
            "id": "1234-5678-abcd-efgh",
            "occurrenceKey": null,
            "type": "file",
            "url": null,
            "width": null,
          },
          "type": "media",
        },
      ],
      "type": "mediaGroup",
    },
    Object {
      "type": "paragraph",
    },
  ],
  "type": "doc",
}
`;
