[
  {
    "id": "src.main",
    "name": "main",
    "stats": {
      "size": 20735,
      "gzipSize": 5919
    }
  },
  {
    "id": "node_modules.main",
    "name": "node_modules [main]",
    "stats": {
      "size": 124748,
      "gzipSize": 37731
    }
  },
  {
    "id": "atlaskit.core.main",
    "name": "main",
    "stats": {
      "size": 69031,
      "gzipSize": 17946
    }
  },
  {
    "id": "combined.main",
    "name": "main",
    "stats": {
      "size": 211240,
      "gzipSize": 59005
    }
  }
]